06966
75356
46464
15180
23367
31416
36083
38160
44008
26146
62536
89638
84821
38178
50736
43399
83761
76306
73190
70916
65271
44898
09655
67118
28879
96698
82099
03184
76955
40133
07572
02571
94154
81909
58844
64524
32589
87196
02715
56356
30320
70670
75538
94204
57243
26340
15414
52496
01390
78802
94830
56343
45319
85736
71418
47124
11027
15995
68274
45056
17838
77075
43361
69690
40430
74734
66769
26999
58469
75469
82789
17393
52499
87798
09954
02758
41015
87161
52600
94263
64429
42371
14248
93327
86923
12453
46224
85187
66357
14125
76370
72909
63535
42073
26337
96565
38496
28701
52074
21346
47407
78943
85070
64678
06761
35530
09994
47781
98675
45839
50646
40660
29584
52705
36935
39253
19381
13688
47782
12033
42261
54750
71165
04962
02600
27846
87342
74889
13942
55816
42678
12986
60731
93609
95643
20208
67920
62650
90552
38471
85169
43860
12405
37000
00723
42342
19999
82462
33620
05961
47084
95899
37565
67800
57181
29594
86213
36349
56579
96571
61269
23619
15564
28058
80968
71857
63615
58409
75888
24496
38419
67705
55665
83827
89264
90669
94771
97176
18102
31707
46164
63412
89780
51081
77232
62579
60720
66548
98055
39087
46371
92264
42021
92148
69588
58844
31243
72239
17420
91071
61394
93532
16096
14246
86304
86937
76559
35708
22761
04293
56682
90256
12493
51129
86690
08672
56762
45415
14323
50473
17110
26246
11629
54583
08092
65005
53037
98380
91422
52045
76781
36415
49753
23189
84067
71047
23967
03434
26992
48177
70226
45857
77412
77386
43512
72136
37897
93653
44046
33618
85895
83494
07280
62343
04093
99814
49023
99809
62173
27390
82387
10023
31992
72689
09251
66500
08947
73254
46774
24645
42895
39131
84750
77690
50971
88847
97160
27267
46171
72608
67112
79806
90672
59912
87110
74470
49785
41608
27404
27944
51169
21604
86150
09519
51857
45284
38348
55637
25857
03411
77997
88018
68114
70773
78825
27475
42378
30731
31319
00144
16379
71408
79484
87584
13461
77397
23835
41133
67483
72387
52421
67785
87012
60207
46914
32507
53320
41065
15938
13139
92775
17866
92548
94929
89277
06607
70678
86710
96170
46269
40955
84145
58736
69635
28911
64834
76843
73640
09055
33886
79055
16710
90811
74394
86862
37919
22813
21989
63224
67497
60616
97402
38344
05733
03476
39994
73636
51846
93339
74489
77291
26932
88847
69663
99179
16964
32617
71414
43070
23470
27496
18717
01351
32265
27680
06384
05718
56529
01599
42556
94135
34845
24177
07812
52519
49855
54756
85159
40757
43344
13208
23252
20917
04073
24789
58568
96450
54713
66027
28668
81563
32002
57804
91604
18773
11019
98081
01081
13288
41019
23247
37958
54579
81112
13721
81813
44774
50376
93701
00190
51184
72636
90834
44065
28516
92411
98429
20277
72229
65745
56475
14220
05552
92497
68993
57675
68915
53971
47816
23616
17591
78337
09714
38459
45241
66963
21692
26713
48349
24753
56386
37097
99313
59224
94959
40235
80176
23550
26225
45073
44578
38489
36939
46391
10090
79184
78835
15618
22141
08779
46003
99375
47404
08694
17508
43915
02010
97060
48026
41499
70075
35255
58322
55819
36348
75933
25268
74383
77890
61363
48858
82582
88207
12688
74356
32634
33142
72652
44714
63506
08144
46572
97027
99887
51651
86815
05907
84058
58868
86008
02860
42137
43849
50877
11742
68906
52745
93008
41353
38965
81513
06887
62445
40284
91360
97903
90242
61041
08398
85707
97308
53793
83947
60348
94680
97826
35103
90208
24476
23364
15826
93776
65996
22526
47758
70176
70213
21387
52833
30184
38702
37938
59179
79481
75169
79642
58615
45542
74797
78257
11825
27830
89915
45352
54089
56838
58853
36547
87093
12021
58421
88541
23147
70149
65890
62648
66887
91719
94122
61371
82537
21188
60940
56334
98245
41574
45663
64483
58872
46036
94736
87952
33678
34348
52383
21038
44766
48620
74304
85384
90297
38627
36718
50806
87121
07836
92355
84136
72276
11853
34647
64514
95986
69435
55731
93817
77460
14905
89518
58989
12661
81153
05145
34210
34365
20672
08941
71157
36684
85279
28445
40361
75442
21330
17997
80707
74640
75588
37607
53642
90187
27451
79002
39292
99746
45510
36625
10145
11946
74675
70201
19949
83187
62446
07750
84317
95943
66223
77898
16705
53526
86196
63777
80328
62425
24937
75031
53105
58393
31404
28361
16414
64721
25838
95055
29326
24235
14147
55161
58086
73270
50189
78633
29769
16823
19263
12490
80337
49354
86356
82950
69335
71017
73190
59568
96079
18236
79155
12481
63954
90261
45722
74783
33491
15815
45444
95265
12471
31366
28049
22689
14198
40698
42016
41079
65797
70842
32305
16771
59626
51629
38168
75391
25446
53074
12782
82554
92728
93015
06321
44939
95075
41755
53245
68209
05668
15861
51316
28791
65931
37772
61577
07593
74985
54507
50826
71933
98507
02234
59499
49402
87990
88085
77244
77080
94430
79294
38792
74366
36115
49685
19080
83739
29446
76190
84335
02274
21589
01260
28459
58613
69657
48959
20258
76670
97010
08376
12212
54707
83065
44507
63971
73475
24034
86332
20229
74471
77832
69793
41541
83842
59121
10269
16801
45443
41058
08506
62804
12572
97901
34571
83184
18791
44109
14130
53073
55612
80505
98487
93631
84632
38193
33096
77165
50718
38686
56171
85595
99192
41522
14021
59415
61202
49072
36026
16537
20378
25081
89587
39773
13856
56524
53312
60038
60747
20533
26138
92323
12766
44935
81309
32836
89278
14117
74126
98886
38362
57223
36307
64913
34420
36802
99845
36416
54469
66396
88163
42696
45109
68198
53396
68403
95326
22568
23466
57443
86952
36733
88533
96991
88397
05957
75773
45782
98677
96174
88652
40124
11517
59652
55042
59446
01597
42800
14058
95115
13909
88801
22808
50921
16791
38735
55956
23947
79238
51633
31644
36850
65791
71805
73010
31625
33528
51655
75207
72442
25998
74758
80780
77826
50786
92130
57026
44297
05011
54672
17168
21779
56991
90441
45389
84571
37735
57367
61727
24926
41973
99195
04086
36469
51595
08483
20152
34224
66839
91713
96459
39179
90241
93314
37334
48289
05311
22568
75575
66217
90881
81716
51039
28260
37995
38040
32861
87097
08998
02416
30898
16434
68123
67362
40460
92367
61824
47265
60025
45539
05027
02578
14782
91749
61063
39063
76624
75312
82770
21564
18317
74247
61863
73567
84312
48170
68833
47106
69883
93794
91671
62126
07348
21621
